Tools to help you design and evaluate color palettes • paleval
…
You can install the development version of paleval from GitHub with:

devtools::install_github("ijlyttle/paleval")

Example

library("paleval")

fcont <- pev_fcont("Dynamic") # continuous palette-function, from colorspace
fdisc <- pev_fdisc(fcont, method = "panel") # discrete palette-function

data_sep <- pev_data_separation(fdisc(7))
print(data_sep)
#> # A tibble: 196 x 5
#>    cvd       i hex     hex_ref distance
#>    <chr> <int> <chr>   <chr>      <dbl>
#>  1 none      1 #E396A0 #E396A0      0  
#>  2 none      1 #E396A0 #D796D0     14.9
#>  3 none      1 #E396A0 #9FA8E2     26.4
#>  4 none      1 #E396A0 #4CB9CC     53.6
#>  5 none      1 #E396A0 #50BE9B     53.0
#>  6 none      1 #E396A0 #97B56C     45.3
#>  7 none      1 #E396A0 #CBA56E     27.1
#>  8 none      2 #D796D0 #E396A0     14.9
#>  9 none      2 #D796D0 #D796D0      0  
#> 10 none      2 #D796D0 #9FA8E2     18.3
#> # … with 186 more rows
…
data_drv <- pev_data_derivative("Purple-Green")
data_drv
#> # A tibble: 164 x 4
#>    cvd       x hex     d_distance_d_x
#>    <chr> <dbl> <chr>            <dbl>
#>  1 none  0     #492050           136.
#>  2 none  0.025 #562A5E           152.
#>  3 none  0.05  #65346D           162.
#>  4 none  0.075 #733F7C           169.
#>  5 none  0.1   #82498C           172.
#>  6 none  0.125 #90529C           178.
#>  7 none  0.15  #9F5CAB           187.
#>  8 none  0.175 #AE65BB           170.
#>  9 none  0.2   #B574C2           167.
#> 10 none  0.225 #BD82C9           158.
#> # … with 154 more rows
…
