…
## Example

``` r
library("paleval")

pal <- colorspace::qualitative_hcl(n = 5)
print(pal)
#> [1] "#E16A86" "#AA9000" "#00AA5A" "#00A6CA" "#B675E0"

data_sep <- pev_data_separation(pal)
print(data_sep)
#> # A tibble: 100 x 4
#>    cvd   color_a color_b difference
#>    <chr> <fct>   <chr>        <dbl>
#>  1 none  #E16A86 #E16A86        0  
#>  2 none  #E16A86 #AA9000       48.6
#>  3 none  #E16A86 #00AA5A       71.4
#>  4 none  #E16A86 #00A6CA       60.3
#>  5 none  #E16A86 #B675E0       23.0
#>  6 none  #AA9000 #E16A86       48.6
#>  7 none  #AA9000 #AA9000        0  
#>  8 none  #AA9000 #00AA5A       30.4
#>  9 none  #AA9000 #00A6CA       47.7
#> 10 none  #AA9000 #B675E0       63.9
#> # … with 90 more rows
…
